Tidying data and the tidyverse including the pipe.
…
The values will be in a column called `mass`, the treatments in a column called `spray`.

---
# Converting "wide" to "long"

🎬 View the dataframe.

.scroll-output-height[
.code70[

```
## # A tibble: 60 x 3
##    rep_tray spray         mass
##    <chr>    <chr>        <dbl>
##  1 1_x      WaterControl 350. 
##  2 1_x      A            159. 
##  3 1_x      B            150. 
##  4 1_x      C             80.0
##  5 1_x      D            267. 
##  6 1_x      E            350. 
##  7 2_x      WaterControl 324. 
##  8 2_x      A            146. 
##  9 2_x      B            154. 
## 10 2_x      C            266. 
## # ... with 50 more rows
```
…
